<?xml version="1.0" encoding="UTF-8" standalone="no"?>
<svg width="46px" height="45px" viewBox="0 0 46 45" version="1.1" xmlns="http://www.w3.org/2000/svg" xmlns:xlink="http://www.w3.org/1999/xlink" xmlns:sketch="http://www.bohemiancoding.com/sketch/ns">
    <!-- Generator: Sketch 3.3.1 (12002) - http://www.bohemiancoding.com/sketch -->
    <title>icon-social-f3</title>
    <desc>Created with Sketch.</desc>
    <defs></defs>
    <g id="Page-1" stroke="none" stroke-width="1" fill="none" fill-rule="evenodd" sketch:type="MSPage">
        <g id="icon-social-f3" sketch:type="MSArtboardGroup" transform="translate(0.102000, 0.000000)" fill="#0084FF">
            <path d="M22.4995,6.757 C13.8585,6.757 6.8535,13.283 6.8535,21.334 C6.8535,25.921 9.1295,30.013 12.6845,32.685 L12.6845,38.243 L18.0125,35.301 C19.4335,35.698 20.9405,35.911 22.4995,35.911 C31.1415,35.911 38.1465,29.385 38.1465,21.334 C38.1465,13.283 31.1415,6.757 22.4995,6.757 L22.4995,6.757 Z M24.0545,26.387 L20.0705,22.111 L12.2955,26.387 L20.8475,17.253 L24.9295,21.528 L32.6065,17.253 L24.0545,26.387 L24.0545,26.387 Z" id="Fill-3" sketch:type="MSShapeGroup"></path>
        </g>
    </g>
</svg>