<?xml version="1.0" encoding="UTF-8" standalone="no"?>
<svg width="45px" height="45px" viewBox="0 0 45 45" version="1.1" xmlns="http://www.w3.org/2000/svg" xmlns:xlink="http://www.w3.org/1999/xlink" xmlns:sketch="http://www.bohemiancoding.com/sketch/ns">
    <!-- Generator: Sketch 3.3.1 (12002) - http://www.bohemiancoding.com/sketch -->
    <title>icon-social-f1</title>
    <desc>Created with Sketch.</desc>
    <defs></defs>
    <g id="Page-1" stroke="none" stroke-width="1" fill="none" fill-rule="evenodd" sketch:type="MSPage">
        <g id="icon-social-f1" sketch:type="MSArtboardGroup" fill="#46731E">
            <path d="M29.4305058,7.647 C29.4255058,7.742 29.4155058,7.836 29.4155058,7.931 C29.4145058,9.456 29.4105058,10.982 29.4195058,12.508 C29.4205058,12.72 29.3575058,12.773 29.1515058,12.771 C28.3215058,12.763 27.4915058,12.764 26.6615058,12.779 C26.3795058,12.785 26.0955058,12.829 25.8165058,12.881 C25.2935058,12.98 24.9115058,13.404 24.8895058,13.994 C24.8485058,15.067 24.8535058,16.143 24.8345058,17.217 C24.8315058,17.413 24.9625058,17.38 25.0755058,17.381 L29.1315058,17.381 L29.4375058,17.381 C29.2555058,19.107 29.0785058,20.792 28.8985058,22.495 L24.8405058,22.495 L24.8405058,22.815 C24.8385058,27.574 24.8375058,32.333 24.8355058,37.092 C24.8355058,37.179 24.8305058,37.265 24.8275058,37.353 L19.2755058,37.353 C19.2775058,37.265 19.2815058,37.179 19.2815058,37.092 L19.2815058,22.857 L19.2815058,22.502 L15.5815058,22.502 C15.5755058,22.399 15.5675058,22.322 15.5675058,22.245 C15.5665058,20.711 15.5715058,19.176 15.5625058,17.642 C15.5615058,17.43 15.6245058,17.376 15.8305058,17.378 C16.8905058,17.387 17.9505058,17.375 19.0105058,17.387 C19.2365058,17.389 19.2845058,17.314 19.2855058,17.103 C19.2915058,15.726 19.2845058,14.35 19.3335058,12.976 C19.3695058,11.975 19.5785058,11.002 20.0425058,10.098 C20.5525058,9.106 21.3435058,8.43 22.3955058,8.096 C22.9785058,7.91 23.5955058,7.832 24.1965058,7.704 C24.2805058,7.686 24.3645058,7.667 24.4475058,7.647 L29.4305058,7.647" id="Fill-1" sketch:type="MSShapeGroup"></path>
        </g>
    </g>
</svg>